^C:\HACKBUILDSTAGE\LOCAL\WINDOWSCALC\CALCULATOR\APP.RC
/D _USING_V110_SDK71_ /D _UNICODE /D UNICODE /l"0x0409" /nologo /fo"DEBUG\APP.RES"   C:\HACKBUILDSTAGE\LOCAL\WINDOWSCALC\CALCULATOR\APP.RC
^C:\HACKBUILDSTAGE\WINDOWSCALC\CALCULATOR\APP.RC
/D _USING_V110_SDK71_ /D _UNICODE /D UNICODE /l"0x0409" /nologo /fo"DEBUG\APP.RES"   C:\HACKBUILDSTAGE\WINDOWSCALC\CALCULATOR\APP.RC
