^C:\HACKBUILDSTAGE\LOCAL\WINDOWSCALC\CALCULATOR\APP.RC
C:\HACKBUILDSTAGE\LOCAL\WINDOWSCALC\CALCULATOR\RESOURCE.H
C:\HACKBUILDSTAGE\LOCAL\WINDOWSCALC\CALCULATOR\APP.ICO
^C:\HACKBUILDSTAGE\WINDOWSCALC\CALCULATOR\APP.RC
C:\HACKBUILDSTAGE\WINDOWSCALC\CALCULATOR\RESOURCE.H
C:\HACKBUILDSTAGE\WINDOWSCALC\CALCULATOR\APP.ICO
